2021-04-18 00:00:23: knex success
2021-04-18 00:05:00: delivery job start
2021-04-18 00:05:24: knex success
2021-04-18 00:10:00: delivery job start
2021-04-18 00:10:25: knex success
2021-04-18 00:15:00: delivery job start
2021-04-18 00:15:23: knex success
2021-04-18 00:20:00: delivery job start
2021-04-18 00:20:28: knex success
2021-04-18 00:25:00: delivery job start
2021-04-18 00:25:31: knex success
2021-04-18 00:30:00: delivery job start
2021-04-18 00:30:22: knex success
2021-04-18 00:35:00: delivery job start
2021-04-18 00:35:25: knex success
2021-04-18 00:40:00: delivery job start
2021-04-18 00:40:19: knex success
2021-04-18 00:45:00: delivery job start
2021-04-18 00:45:30: knex success
2021-04-18 00:50:00: delivery job start
2021-04-18 00:50:30: knex success
2021-04-18 00:55:00: delivery job start
2021-04-18 00:55:22: knex success
2021-04-18 01:00:00: delivery job start
2021-04-18 01:00:28: knex success
2021-04-18 01:05:00: delivery job start
2021-04-18 01:05:23: knex success
2021-04-18 01:10:00: delivery job start
2021-04-18 01:10:23: knex success
2021-04-18 01:15:00: delivery job start
2021-04-18 01:15:31: knex success
2021-04-18 01:20:00: delivery job start
2021-04-18 01:20:23: knex success
2021-04-18 01:25:00: delivery job start
2021-04-18 01:25:22: knex success
2021-04-18 01:30:00: delivery job start
2021-04-18 01:30:22: knex success
2021-04-18 01:34:59: delivery job start
2021-04-18 01:35:31: knex success
2021-04-18 01:40:00: delivery job start
2021-04-18 01:40:29: knex success
2021-04-18 01:45:00: delivery job start
2021-04-18 01:45:23: knex success
2021-04-18 01:50:00: delivery job start
2021-04-18 01:50:23: knex success
2021-04-18 01:55:00: delivery job start
2021-04-18 01:55:31: knex success
2021-04-18 02:00:00: delivery job start
2021-04-18 02:00:25: knex success
2021-04-18 02:05:00: delivery job start
2021-04-18 02:05:19: knex success
2021-04-18 02:10:00: delivery job start
2021-04-18 02:10:22: knex success
2021-04-18 02:15:00: delivery job start
2021-04-18 02:15:33: knex success
2021-04-18 02:20:00: delivery job start
2021-04-18 02:20:24: knex success
2021-04-18 02:25:00: delivery job start
2021-04-18 02:25:23: knex success
2021-04-18 02:30:00: delivery job start
2021-04-18 02:30:22: knex success
2021-04-18 02:35:00: delivery job start
2021-04-18 02:35:30: knex success
2021-04-18 02:40:00: delivery job start
2021-04-18 02:40:22: knex success
2021-04-18 02:45:00: delivery job start
2021-04-18 02:45:23: knex success
2021-04-18 02:50:00: delivery job start
2021-04-18 02:50:27: knex success
2021-04-18 02:55:00: delivery job start
2021-04-18 02:55:23: knex success
2021-04-18 03:00:00: delivery job start
2021-04-18 03:00:21: knex success
2021-04-18 03:05:00: delivery job start
2021-04-18 03:05:31: knex success
2021-04-18 03:09:59: delivery job start
2021-04-18 03:10:24: knex success
2021-04-18 03:15:00: delivery job start
2021-04-18 03:15:25: knex success
2021-04-18 03:20:00: delivery job start
2021-04-18 03:20:25: knex success
2021-04-18 03:25:00: delivery job start
2021-04-18 03:25:24: knex success
2021-04-18 03:30:00: delivery job start
2021-04-18 03:30:23: knex success
2021-04-18 03:34:59: delivery job start
2021-04-18 03:35:22: knex success
2021-04-18 03:40:00: delivery job start
2021-04-18 03:40:27: knex success
2021-04-18 03:45:00: delivery job start
2021-04-18 03:45:24: knex success
2021-04-18 03:50:00: delivery job start
2021-04-18 03:50:23: knex success
2021-04-18 03:55:00: delivery job start
2021-04-18 03:55:31: knex success
2021-04-18 04:00:00: delivery job start
2021-04-18 04:00:24: knex success
2021-04-18 04:05:00: delivery job start
2021-04-18 04:05:21: knex success
2021-04-18 04:10:00: delivery job start
2021-04-18 04:10:27: knex success
2021-04-18 04:14:59: delivery job start
2021-04-18 04:15:31: knex success
2021-04-18 04:20:00: delivery job start
2021-04-18 04:20:32: knex success
2021-04-18 04:25:00: delivery job start
2021-04-18 04:25:22: knex success
2021-04-18 04:30:00: delivery job start
2021-04-18 04:30:28: knex success
2021-04-18 04:35:00: delivery job start
2021-04-18 04:35:24: knex success
2021-04-18 04:40:00: delivery job start
2021-04-18 04:40:23: knex success
2021-04-18 04:45:00: delivery job start
2021-04-18 04:45:22: knex success
2021-04-18 04:50:00: delivery job start
2021-04-18 04:50:31: knex success
2021-04-18 04:55:00: delivery job start
2021-04-18 04:55:25: knex success
2021-04-18 05:00:00: delivery job start
2021-04-18 05:00:22: knex success
2021-04-18 05:05:00: delivery job start
2021-04-18 05:05:23: knex success
2021-04-18 05:10:00: delivery job start
2021-04-18 05:10:23: knex success
2021-04-18 05:15:00: delivery job start
2021-04-18 05:15:23: knex success
2021-04-18 05:20:00: delivery job start
2021-04-18 05:20:26: knex success
2021-04-18 05:25:00: delivery job start
2021-04-18 05:25:25: knex success
2021-04-18 05:30:00: delivery job start
2021-04-18 05:30:23: knex success
2021-04-18 05:35:00: delivery job start
2021-04-18 05:35:22: knex success
2021-04-18 05:40:00: delivery job start
2021-04-18 05:40:24: knex success
2021-04-18 05:45:00: delivery job start
2021-04-18 05:45:26: knex success
2021-04-18 05:50:00: delivery job start
2021-04-18 05:50:23: knex success
2021-04-18 05:55:00: delivery job start
2021-04-18 05:55:22: knex success
2021-04-18 06:00:00: delivery job start
2021-04-18 06:00:21: knex success
2021-04-18 06:05:00: delivery job start
2021-04-18 06:05:23: knex success
2021-04-18 06:10:00: delivery job start
2021-04-18 06:10:26: knex success
2021-04-18 06:15:00: delivery job start
2021-04-18 06:15:23: knex success
2021-04-18 06:20:00: delivery job start
2021-04-18 06:20:23: knex success
2021-04-18 06:25:00: delivery job start
2021-04-18 06:25:23: knex success
2021-04-18 06:30:00: delivery job start
2021-04-18 06:30:31: knex success
2021-04-18 06:35:00: delivery job start
2021-04-18 06:35:24: knex success
2021-04-18 06:40:00: delivery job start
2021-04-18 06:40:23: knex success
2021-04-18 06:45:00: delivery job start
2021-04-18 06:45:25: knex success
2021-04-18 06:50:00: delivery job start
2021-04-18 06:50:27: knex success
2021-04-18 06:55:00: delivery job start
2021-04-18 06:55:24: knex success
2021-04-18 07:00:00: delivery job start
2021-04-18 07:00:23: knex success
2021-04-18 07:04:59: delivery job start
2021-04-18 07:05:27: knex success
2021-04-18 07:10:00: delivery job start
2021-04-18 07:10:24: knex success
2021-04-18 07:15:00: delivery job start
2021-04-18 07:15:24: knex success
2021-04-18 07:20:00: delivery job start
2021-04-18 07:20:28: knex success
2021-04-18 07:25:00: delivery job start
2021-04-18 07:25:24: knex success
2021-04-18 07:30:00: delivery job start
2021-04-18 07:30:23: knex success
2021-04-18 07:35:00: delivery job start
2021-04-18 07:35:19: knex success
2021-04-18 07:40:00: delivery job start
2021-04-18 07:40:26: knex success
2021-04-18 07:45:00: delivery job start
2021-04-18 07:45:22: knex success
2021-04-18 07:50:00: delivery job start
2021-04-18 07:50:21: knex success
2021-04-18 07:55:00: delivery job start
2021-04-18 07:55:27: knex success
2021-04-18 08:00:00: delivery job start
2021-04-18 08:00:22: knex success
2021-04-18 08:05:00: delivery job start
2021-04-18 08:05:19: knex success
2021-04-18 08:10:00: delivery job start
2021-04-18 08:10:31: knex success
2021-04-18 08:15:00: delivery job start
2021-04-18 08:15:32: knex success
2021-04-18 08:20:00: delivery job start
2021-04-18 08:20:22: knex success
2021-04-18 08:25:00: delivery job start
2021-04-18 08:25:21: knex success
2021-04-18 08:30:00: delivery job start
2021-04-18 08:30:21: knex success
2021-04-18 08:35:00: delivery job start
2021-04-18 08:35:22: knex success
2021-04-18 08:40:00: delivery job start
2021-04-18 08:40:23: knex success
2021-04-18 08:45:00: delivery job start
2021-04-18 08:45:23: knex success
2021-04-18 08:50:00: delivery job start
2021-04-18 08:50:22: knex success
2021-04-18 08:55:00: delivery job start
2021-04-18 08:55:22: knex success
2021-04-18 09:00:00: delivery job start
2021-04-18 09:00:01: expediting job start
2021-04-18 09:00:11: mssql start
2021-04-18 09:00:11: knex success
2021-04-18 09:00:11: send done
2021-04-18 09:00:20: knex success
2021-04-18 09:05:00: delivery job start
2021-04-18 09:05:26: knex success
2021-04-18 09:10:00: delivery job start
2021-04-18 09:10:23: knex success
2021-04-18 09:15:00: delivery job start
2021-04-18 09:15:22: knex success
2021-04-18 09:20:00: delivery job start
2021-04-18 09:20:23: knex success
2021-04-18 09:25:00: delivery job start
2021-04-18 09:25:32: knex success
2021-04-18 09:30:00: delivery job start
2021-04-18 09:30:17: knex success
2021-04-18 09:35:00: delivery job start
2021-04-18 09:35:24: knex success
2021-04-18 09:40:00: delivery job start
2021-04-18 09:40:19: knex success
2021-04-18 09:45:00: delivery job start
2021-04-18 09:45:25: knex success
2021-04-18 09:50:00: delivery job start
2021-04-18 09:50:25: knex success
2021-04-18 09:55:00: delivery job start
2021-04-18 09:55:23: knex success
2021-04-18 10:00:00: delivery job start
2021-04-18 10:00:32: knex success
2021-04-18 10:04:59: delivery job start
2021-04-18 10:05:25: knex success
2021-04-18 10:09:59: delivery job start
2021-04-18 10:10:22: knex success
2021-04-18 10:15:00: delivery job start
2021-04-18 10:15:31: knex success
2021-04-18 10:20:00: delivery job start
2021-04-18 10:20:24: knex success
2021-04-18 10:25:00: delivery job start
2021-04-18 10:25:23: knex success
2021-04-18 10:30:00: delivery job start
2021-04-18 10:30:27: knex success
2021-04-18 10:34:59: delivery job start
2021-04-18 10:35:22: knex success
2021-04-18 10:40:00: delivery job start
2021-04-18 10:40:27: knex success
2021-04-18 10:45:00: delivery job start
2021-04-18 10:45:20: knex success
2021-04-18 10:50:00: delivery job start
2021-04-18 10:50:22: knex success
2021-04-18 10:55:00: delivery job start
2021-04-18 10:55:23: knex success
2021-04-18 11:00:00: delivery job start
2021-04-18 11:00:23: knex success
2021-04-18 11:05:00: delivery job start
2021-04-18 11:05:31: knex success
2021-04-18 11:10:00: delivery job start
2021-04-18 11:10:24: knex success
2021-04-18 11:15:00: delivery job start
2021-04-18 11:15:23: knex success
2021-04-18 11:20:00: delivery job start
2021-04-18 11:20:23: knex success
2021-04-18 11:25:00: delivery job start
2021-04-18 11:25:27: knex success
2021-04-18 11:30:00: delivery job start
2021-04-18 11:30:22: knex success
2021-04-18 11:35:00: delivery job start
2021-04-18 11:35:28: knex success
2021-04-18 11:40:00: delivery job start
2021-04-18 11:40:32: knex success
2021-04-18 11:45:00: delivery job start
2021-04-18 11:45:22: knex success
2021-04-18 11:50:00: delivery job start
2021-04-18 11:50:21: knex success
2021-04-18 11:55:00: delivery job start
2021-04-18 11:55:22: knex success
2021-04-18 12:00:00: delivery job start
2021-04-18 12:00:22: knex success
2021-04-18 12:05:00: delivery job start
2021-04-18 12:05:23: knex success
2021-04-18 12:09:59: delivery job start
2021-04-18 12:10:22: knex success
2021-04-18 12:15:00: delivery job start
2021-04-18 12:15:30: knex success
2021-04-18 12:20:00: delivery job start
2021-04-18 12:20:17: knex success
2021-04-18 12:25:00: delivery job start
2021-04-18 12:25:21: knex success
2021-04-18 12:30:00: delivery job start
2021-04-18 12:30:30: knex success
2021-04-18 12:35:00: delivery job start
2021-04-18 12:35:25: knex success
2021-04-18 12:40:00: delivery job start
2021-04-18 12:40:23: knex success
2021-04-18 12:45:00: delivery job start
2021-04-18 12:45:19: knex success
2021-04-18 12:50:00: delivery job start
2021-04-18 12:50:25: knex success
2021-04-18 12:55:00: delivery job start
2021-04-18 12:55:23: knex success
2021-04-18 13:00:00: delivery job start
2021-04-18 13:00:28: knex success
2021-04-18 13:05:00: delivery job start
2021-04-18 13:05:25: knex success
2021-04-18 13:10:00: delivery job start
2021-04-18 13:10:25: knex success
2021-04-18 13:15:00: delivery job start
2021-04-18 13:15:23: knex success
2021-04-18 13:20:00: delivery job start
2021-04-18 13:20:22: knex success
2021-04-18 13:25:00: delivery job start
2021-04-18 13:25:22: knex success
2021-04-18 13:30:00: delivery job start
2021-04-18 13:30:23: knex success
2021-04-18 13:35:00: delivery job start
2021-04-18 13:35:30: knex success
2021-04-18 13:40:00: delivery job start
2021-04-18 13:40:31: knex success
2021-04-18 13:45:00: delivery job start
2021-04-18 13:45:23: knex success
2021-04-18 13:50:00: delivery job start
2021-04-18 13:50:25: knex success
2021-04-18 13:55:00: delivery job start
2021-04-18 13:55:22: knex success
2021-04-18 14:00:00: delivery job start
2021-04-18 14:00:27: knex success
2021-04-18 14:05:00: delivery job start
2021-04-18 14:05:23: knex success
2021-04-18 14:10:00: delivery job start
2021-04-18 14:10:23: knex success
2021-04-18 14:15:00: delivery job start
2021-04-18 14:15:24: knex success
2021-04-18 14:20:00: delivery job start
2021-04-18 14:20:23: knex success
2021-04-18 14:25:00: delivery job start
2021-04-18 14:25:23: knex success
2021-04-18 14:30:00: delivery job start
2021-04-18 14:30:26: knex success
2021-04-18 14:35:00: delivery job start
2021-04-18 14:35:22: knex success
2021-04-18 14:40:00: delivery job start
2021-04-18 14:40:24: knex success
2021-04-18 14:45:00: delivery job start
2021-04-18 14:45:24: knex success
2021-04-18 14:50:00: delivery job start
2021-04-18 14:50:31: knex success
2021-04-18 14:55:00: delivery job start
2021-04-18 14:55:23: knex success
2021-04-18 15:00:00: delivery job start
2021-04-18 15:00:28: knex success
2021-04-18 15:04:59: delivery job start
2021-04-18 15:05:24: knex success
2021-04-18 15:10:00: delivery job start
2021-04-18 15:10:24: knex success
2021-04-18 15:15:00: delivery job start
2021-04-18 15:15:23: knex success
2021-04-18 15:20:00: delivery job start
2021-04-18 15:20:28: knex success
2021-04-18 15:25:00: delivery job start
2021-04-18 15:25:27: knex success
2021-04-18 15:30:00: delivery job start
2021-04-18 15:30:23: knex success
2021-04-18 15:35:00: delivery job start
2021-04-18 15:35:20: knex success
2021-04-18 15:40:00: delivery job start
2021-04-18 15:40:25: knex success
2021-04-18 15:45:00: delivery job start
2021-04-18 15:45:24: knex success
2021-04-18 15:50:00: delivery job start
2021-04-18 15:50:23: knex success
2021-04-18 15:55:00: delivery job start
2021-04-18 15:55:24: knex success
2021-04-18 16:00:00: delivery job start
2021-04-18 16:00:22: knex success
2021-04-18 16:05:00: delivery job start
2021-04-18 16:05:23: knex success
2021-04-18 16:10:00: delivery job start
2021-04-18 16:10:19: knex success
2021-04-18 16:15:00: delivery job start
2021-04-18 16:15:25: knex success
2021-04-18 16:20:00: delivery job start
2021-04-18 16:20:19: knex success
2021-04-18 16:25:00: delivery job start
2021-04-18 16:25:27: knex success
2021-04-18 16:30:00: delivery job start
2021-04-18 16:30:22: knex success
2021-04-18 16:35:00: delivery job start
2021-04-18 16:35:22: knex success
2021-04-18 16:40:00: delivery job start
2021-04-18 16:40:29: knex success
2021-04-18 16:45:00: delivery job start
2021-04-18 16:45:22: knex success
2021-04-18 16:50:00: delivery job start
2021-04-18 16:50:30: knex success
2021-04-18 16:55:00: delivery job start
2021-04-18 16:55:23: knex success
2021-04-18 17:00:00: delivery job start
2021-04-18 17:00:31: knex success
2021-04-18 17:05:00: delivery job start
2021-04-18 17:05:24: knex success
2021-04-18 17:10:00: delivery job start
2021-04-18 17:10:23: knex success
2021-04-18 17:15:00: delivery job start
2021-04-18 17:15:25: knex success
2021-04-18 17:20:00: delivery job start
2021-04-18 17:20:23: knex success
2021-04-18 17:25:00: delivery job start
2021-04-18 17:25:22: knex success
2021-04-18 17:30:00: delivery job start
2021-04-18 17:30:23: knex success
2021-04-18 17:35:00: delivery job start
2021-04-18 17:35:21: knex success
2021-04-18 17:40:00: delivery job start
2021-04-18 17:40:23: knex success
2021-04-18 17:45:00: delivery job start
2021-04-18 17:45:22: knex success
2021-04-18 17:50:00: delivery job start
2021-04-18 17:50:19: knex success
2021-04-18 17:55:00: delivery job start
2021-04-18 17:55:24: knex success
2021-04-18 18:00:00: delivery job start
2021-04-18 18:00:23: knex success
2021-04-18 18:05:00: delivery job start
2021-04-18 18:05:31: knex success
2021-04-18 18:10:00: delivery job start
2021-04-18 18:10:23: knex success
2021-04-18 18:15:00: delivery job start
2021-04-18 18:15:22: knex success
2021-04-18 18:20:00: delivery job start
2021-04-18 18:20:25: knex success
2021-04-18 18:25:00: delivery job start
2021-04-18 18:25:28: knex success
2021-04-18 18:30:00: delivery job start
2021-04-18 18:30:25: knex success
2021-04-18 18:35:00: delivery job start
2021-04-18 18:35:32: knex success
2021-04-18 18:40:00: delivery job start
2021-04-18 18:40:22: knex success
2021-04-18 18:45:00: delivery job start
2021-04-18 18:45:22: knex success
2021-04-18 18:50:00: delivery job start
2021-04-18 18:50:26: knex success
2021-04-18 18:55:00: delivery job start
2021-04-18 18:55:23: knex success
2021-04-18 19:00:00: delivery job start
2021-04-18 19:00:24: knex success
2021-04-18 19:05:00: delivery job start
2021-04-18 19:05:23: knex success
2021-04-18 19:10:00: delivery job start
2021-04-18 19:10:23: knex success
2021-04-18 19:15:00: delivery job start
2021-04-18 19:15:31: knex success
2021-04-18 19:20:00: delivery job start
2021-04-18 19:20:24: knex success
2021-04-18 19:25:00: delivery job start
2021-04-18 19:25:23: knex success
2021-04-18 19:30:00: delivery job start
2021-04-18 19:30:24: knex success
2021-04-18 19:35:00: delivery job start
2021-04-18 19:35:19: knex success
2021-04-18 19:40:00: delivery job start
2021-04-18 19:40:26: knex success
2021-04-18 19:45:00: delivery job start
2021-04-18 19:45:23: knex success
2021-04-18 19:50:00: delivery job start
2021-04-18 19:50:19: knex success
2021-04-18 19:55:00: delivery job start
2021-04-18 19:55:27: knex success
2021-04-18 20:00:00: delivery job start
2021-04-18 20:00:22: knex success
2021-04-18 20:05:00: delivery job start
2021-04-18 20:05:22: knex success
2021-04-18 20:10:00: delivery job start
2021-04-18 20:10:31: knex success
2021-04-18 20:15:00: delivery job start
2021-04-18 20:15:30: knex success
2021-04-18 20:20:00: delivery job start
2021-04-18 20:20:23: knex success
2021-04-18 20:25:00: delivery job start
2021-04-18 20:25:23: knex success
2021-04-18 20:30:00: delivery job start
2021-04-18 20:30:24: knex success
2021-04-18 20:35:00: delivery job start
2021-04-18 20:35:25: knex success
2021-04-18 20:40:00: delivery job start
2021-04-18 20:40:19: knex success
2021-04-18 20:45:00: delivery job start
2021-04-18 20:45:24: knex success
2021-04-18 20:50:00: delivery job start
2021-04-18 20:50:25: knex success
2021-04-18 20:55:00: delivery job start
2021-04-18 20:55:23: knex success
2021-04-18 21:00:00: delivery job start
2021-04-18 21:00:31: knex success
2021-04-18 21:05:00: delivery job start
2021-04-18 21:05:23: knex success
2021-04-18 21:10:00: delivery job start
2021-04-18 21:10:22: knex success
2021-04-18 21:14:59: delivery job start
2021-04-18 21:15:19: knex success
2021-04-18 21:20:00: delivery job start
2021-04-18 21:20:24: knex success
2021-04-18 21:24:59: delivery job start
2021-04-18 21:25:25: knex success
2021-04-18 21:30:00: delivery job start
2021-04-18 21:30:23: knex success
2021-04-18 21:34:59: delivery job start
2021-04-18 21:35:27: knex success
2021-04-18 21:40:00: delivery job start
2021-04-18 21:40:23: knex success
2021-04-18 21:45:00: delivery job start
2021-04-18 21:45:24: knex success
2021-04-18 21:50:00: delivery job start
2021-04-18 21:50:23: knex success
2021-04-18 21:55:00: delivery job start
2021-04-18 21:55:34: knex success
2021-04-18 22:00:00: delivery job start
2021-04-18 22:00:25: knex success
2021-04-18 22:05:00: delivery job start
2021-04-18 22:05:23: knex success
2021-04-18 22:10:00: delivery job start
2021-04-18 22:10:22: knex success
2021-04-18 22:15:00: delivery job start
2021-04-18 22:15:24: knex success
2021-04-18 22:20:00: delivery job start
2021-04-18 22:20:23: knex success
2021-04-18 22:25:00: delivery job start
2021-04-18 22:25:19: knex success
2021-04-18 22:30:00: delivery job start
2021-04-18 22:30:24: knex success
2021-04-18 22:35:00: delivery job start
2021-04-18 22:35:23: knex success
2021-04-18 22:40:00: delivery job start
2021-04-18 22:40:22: knex success
2021-04-18 22:45:00: delivery job start
2021-04-18 22:45:23: knex success
2021-04-18 22:50:00: delivery job start
2021-04-18 22:50:24: knex success
2021-04-18 22:55:00: delivery job start
2021-04-18 22:55:31: knex success
2021-04-18 23:00:00: delivery job start
2021-04-18 23:00:22: knex success
2021-04-18 23:04:59: delivery job start
2021-04-18 23:05:31: knex success
2021-04-18 23:09:59: delivery job start
2021-04-18 23:10:25: knex success
2021-04-18 23:15:00: delivery job start
2021-04-18 23:15:23: knex success
2021-04-18 23:20:00: delivery job start
2021-04-18 23:20:22: knex success
2021-04-18 23:25:00: delivery job start
2021-04-18 23:25:30: knex success
2021-04-18 23:30:00: delivery job start
2021-04-18 23:30:21: knex success
2021-04-18 23:35:00: delivery job start
2021-04-18 23:35:22: knex success
2021-04-18 23:40:00: delivery job start
2021-04-18 23:40:26: knex success
2021-04-18 23:45:00: delivery job start
2021-04-18 23:45:22: knex success
2021-04-18 23:50:00: delivery job start
2021-04-18 23:50:25: knex success
2021-04-18 23:55:00: delivery job start
2021-04-18 23:55:22: knex success
2021-04-19 00:00:00: delivery job start
