2021-04-15 17:48:58: TypeError: Cannot read property 'emp_id' of undefined
2021-04-15 17:48:58:     at skl_log_body (D:\WEBA\www\handlers\log.js:203:22)
2021-04-15 17:48:58:     at Object.exports.print_log (D:\WEBA\www\handlers\log.js:255:13)
2021-04-15 17:48:58:     at D:\WEBA\www\handlers\error.js:21:24
2021-04-15 17:48:58:     at tryCatcher (D:\WEBA\www\node_modules\bluebird\js\release\util.js:16:23)
2021-04-15 17:48:58:     at Promise._settlePromiseFromHandler (D:\WEBA\www\node_modules\bluebird\js\release\promise.js:512:31)
2021-04-15 17:48:58:     at Promise._settlePromise (D:\WEBA\www\node_modules\bluebird\js\release\promise.js:569:18)
2021-04-15 17:48:58:     at Promise._settlePromise0 (D:\WEBA\www\node_modules\bluebird\js\release\promise.js:614:10)
2021-04-15 17:48:58:     at Promise._settlePromises (D:\WEBA\www\node_modules\bluebird\js\release\promise.js:690:18)
2021-04-15 17:48:58:     at _drainQueueStep (D:\WEBA\www\node_modules\bluebird\js\release\async.js:138:12)
2021-04-15 17:48:58:     at _drainQueue (D:\WEBA\www\node_modules\bluebird\js\release\async.js:131:9)
2021-04-15 17:48:58:     at Async._drainQueues (D:\WEBA\www\node_modules\bluebird\js\release\async.js:147:5)
2021-04-15 17:48:58:     at Immediate.Async.drainQueues (D:\WEBA\www\node_modules\bluebird\js\release\async.js:17:14)
2021-04-15 17:48:58:     at processImmediate (internal/timers.js:439:21)
2021-04-15 17:48:58:     at process.topLevelDomainCallback (domain.js:131:23)
