"D:\WEBA\.pm2\logs\pm2-logrotate-out__2021-06-04_00-00-01.log" has been created
"D:\WEBA\.pm2\logs\runtime-out__2021-06-04_00-00-01.log" has been created
"D:\WEBA\.pm2\logs\runtime-error__2021-06-04_00-00-01.log" has been created
"D:\WEBA\.pm2\logs\cronJob-out__2021-06-04_00-00-01.log" has been created
