2021-07-03 01:12:28: Error: 站點未發佈或無內容
2021-07-03 01:12:28:     at get_site_structure_prod (D:\WEBA\www\routes\froentend.js:40:27)
2021-07-03 01:12:28:     at runMicrotasks (<anonymous>)
2021-07-03 01:12:28:     at processTicksAndRejections (internal/process/task_queues.js:93:5)
2021-07-03 01:12:28:     at async D:\WEBA\www\routes\froentend.js:67:28
2021-07-03 01:12:28: [0mGET / [32m200 [0m6.615 ms - -[0m
2021-07-03 03:04:42: [0mGET /api/weba/v3/site/publish/sklife-service [36m304 [0m43.114 ms - -[0m
2021-07-03 03:04:42: [0mGET /api/weba/v3/site/publish/sklife-service [36m304 [0m10.138 ms - -[0m
2021-07-03 05:35:30: [0mPOST /api/jsonws/invoke [33m403 [0m2.991 ms - -[0m
2021-07-03 08:58:50: [0mGET /sklife-service [32m200 [0m18.518 ms - -[0m
2021-07-03 09:34:21: [0mGET /api/weba/v3/site/publish/lifelab-skl-easterbomb [32m200 [0m13.387 ms - -[0m
2021-07-03 09:34:22: [0mGET /api/weba/v3/site/publish/lifelab-skl-easterbomb [36m304 [0m6.544 ms - -[0m
2021-07-03 09:34:37: [0mGET /api/weba/v3/form/0CB81834-182D-463E-B34C-BB7ED8831392/site/FAEC8396-018A-4995-9F5A-9A68D3636CEE [32m200 [0m15.023 ms - -[0m
2021-07-03 10:52:30: Error: 站點未發佈或無內容
2021-07-03 10:52:30:     at get_site_structure_prod (D:\WEBA\www\routes\froentend.js:40:27)
2021-07-03 10:52:30:     at runMicrotasks (<anonymous>)
2021-07-03 10:52:30:     at processTicksAndRejections (internal/process/task_queues.js:93:5)
2021-07-03 10:52:30:     at async D:\WEBA\www\routes\froentend.js:67:28
2021-07-03 10:52:30: [0mGET / [32m200 [0m5.187 ms - -[0m
2021-07-03 11:41:43: [0mGET /api/weba/v3/site/publish/lifelab-plus [32m200 [0m11.697 ms - -[0m
2021-07-03 11:41:55: [0mGET /api/weba/v3/form/47204690-7E53-4F3A-8134-8AB58177AC79/site/4206FF28-2FCD-47A8-A555-C4A5702BAA7C [32m200 [0m10.448 ms - -[0m
2021-07-03 11:42:20: [0mPOST /api/weba/v3/form/47204690-7E53-4F3A-8134-8AB58177AC79/form_data [32m200 [0m188.421 ms - -[0m
2021-07-03 11:42:20: TypeError: Cannot read property 'emp_id' of undefined
2021-07-03 11:42:20:     at skl_log_body (D:\WEBA\www\handlers\log.js:203:22)
2021-07-03 11:42:20:     at exports.print_log_with_protect (D:\WEBA\www\handlers\log.js:272:13)
2021-07-03 11:42:20:     at D:\WEBA\www\handlers\error.js:26:19
2021-07-03 11:42:20:     at Layer.handle [as handle_request] (D:\WEBA\www\node_modules\express\lib\router\layer.js:95:5)
2021-07-03 11:42:20:     at next (D:\WEBA\www\node_modules\express\lib\router\route.js:137:13)
2021-07-03 11:42:20:     at exports.add_crm_data (D:\WEBA\www\controllers\mssql\skl.js:139:10)
2021-07-03 11:42:20:     at runMicrotasks (<anonymous>)
2021-07-03 11:42:20:     at processTicksAndRejections (internal/process/task_queues.js:93:5)
2021-07-03 11:43:12: [0mGET /api/weba/v3/site/publish/lifelab-plus [36m304 [0m6.319 ms - -[0m
2021-07-03 11:43:12: [0mGET /api/weba/v3/site/publish/lifelab-plus [36m304 [0m4.771 ms - -[0m
2021-07-03 11:43:18: [0mGET /api/weba/v3/form/47204690-7E53-4F3A-8134-8AB58177AC79/site/4206FF28-2FCD-47A8-A555-C4A5702BAA7C [36m304 [0m10.493 ms - -[0m
2021-07-03 11:43:23: [0mGET /api/weba/v3/form/47204690-7E53-4F3A-8134-8AB58177AC79/site/4206FF28-2FCD-47A8-A555-C4A5702BAA7C [32m200 [0m11.244 ms - -[0m
2021-07-03 11:43:33: [0mGET /api/weba/v3/site/publish/lifelab-plus [36m304 [0m6.037 ms - -[0m
2021-07-03 11:43:46: [0mGET /lifelab-plus/%E6%8A%BD%E7%8D%8E%E8%B3%87%E6%96%99%E5%A1%AB%E5%AF%AB?slideIndex=0 [32m200 [0m6.486 ms - -[0m
2021-07-03 11:47:28: [0mGET /api/weba/v3/site/publish/lifelab-plus [32m200 [0m10.104 ms - -[0m
2021-07-03 11:47:44: [0mGET /api/weba/v3/form/47204690-7E53-4F3A-8134-8AB58177AC79/site/4206FF28-2FCD-47A8-A555-C4A5702BAA7C [32m200 [0m11.121 ms - -[0m
2021-07-03 12:24:52: [0mGET /api/weba/v3/site/publish/lifelab-plus [32m200 [0m13.335 ms - -[0m
2021-07-03 12:24:53: [0mGET /api/weba/v3/form/47204690-7E53-4F3A-8134-8AB58177AC79/site/4206FF28-2FCD-47A8-A555-C4A5702BAA7C [32m200 [0m11.143 ms - -[0m
2021-07-03 12:39:03: [0mGET /lifelab-plus/%E6%B4%BB%E5%8B%95%E5%B0%81%E9%9D%A2?slideIndex=0 [32m200 [0m10.902 ms - -[0m
2021-07-03 12:47:45: [33mConnection Error: ConnectionError: delete from [sessions] where expired < CAST(@p0 as DATETIME);select @@rowcount - Failed to connect to IPWEBADB.skl.com.tw:3341 in 15000ms[39m
2021-07-03 12:52:10: [33mConnection Error: ConnectionError: delete from [sessions] where expired < CAST(@p0 as DATETIME);select @@rowcount - Failed to connect to IPWEBADB.skl.com.tw:3341 in 15000ms[39m
2021-07-03 12:59:35: [33mConnection Error: ConnectionError: delete from [sessions] where expired < CAST(@p0 as DATETIME);select @@rowcount - Failed to connect to IPWEBADB.skl.com.tw:3341 in 15000ms[39m
2021-07-03 13:21:39: [0mGET /api/weba/v3/site/publish/lifelab-plus [36m304 [0m18.571 ms - -[0m
2021-07-03 13:21:39: [0mGET /api/weba/v3/form/47204690-7E53-4F3A-8134-8AB58177AC79/site/4206FF28-2FCD-47A8-A555-C4A5702BAA7C [36m304 [0m13.057 ms - -[0m
2021-07-03 13:22:16: [0mPOST /api/weba/v3/form/47204690-7E53-4F3A-8134-8AB58177AC79/form_data [32m200 [0m16.117 ms - -[0m
2021-07-03 13:22:16: TypeError: Cannot read property 'emp_id' of undefined
2021-07-03 13:22:16:     at skl_log_body (D:\WEBA\www\handlers\log.js:203:22)
2021-07-03 13:22:16:     at exports.print_log_with_protect (D:\WEBA\www\handlers\log.js:272:13)
2021-07-03 13:22:16:     at D:\WEBA\www\handlers\error.js:26:19
2021-07-03 13:22:16:     at Layer.handle [as handle_request] (D:\WEBA\www\node_modules\express\lib\router\layer.js:95:5)
2021-07-03 13:22:16:     at next (D:\WEBA\www\node_modules\express\lib\router\route.js:137:13)
2021-07-03 13:22:16:     at exports.add_crm_data (D:\WEBA\www\controllers\mssql\skl.js:139:10)
2021-07-03 13:22:16:     at runMicrotasks (<anonymous>)
2021-07-03 13:22:16:     at processTicksAndRejections (internal/process/task_queues.js:93:5)
2021-07-03 13:22:37: [0mGET /api/weba/v3/form/47204690-7E53-4F3A-8134-8AB58177AC79/site/4206FF28-2FCD-47A8-A555-C4A5702BAA7C [36m304 [0m11.221 ms - -[0m
2021-07-03 14:48:52: [0mGET /sklife-service/%E9%A0%81%E9%9D%A2?slideIndex=0 [32m200 [0m18.189 ms - -[0m
2021-07-03 14:51:04: [0mGET /api/weba/v3/site/publish/sklife-service [36m304 [0m18.767 ms - -[0m
2021-07-03 14:51:04: [0mGET /api/weba/v3/site/publish/sklife-service [36m304 [0m14.693 ms - -[0m
2021-07-03 14:53:18: [0mGET /lifelab-skl-2021valentine [32m200 [0m7.529 ms - 1378[0m
2021-07-03 14:53:18: [0mGET /lifelab-skl-2021valentine [32m200 [0m10.755 ms - 1378[0m
2021-07-03 15:26:22: [0mGET /api/weba/v3/site/publish/lifelab-plus [36m304 [0m11.507 ms - -[0m
2021-07-03 15:52:13: [0mGET /api/weba/v3/site/publish/sklife-service [32m200 [0m20.413 ms - -[0m
2021-07-03 18:26:37: [0mGET /lifelab-plus/%E6%B4%BB%E5%8B%95%E5%B0%81%E9%9D%A2?slideIndex=0 [32m200 [0m14.096 ms - -[0m
2021-07-03 18:26:37: [0mGET /lifelab-plus/%E6%B4%BB%E5%8B%95%E5%B0%81%E9%9D%A2?slideIndex=0 [32m200 [0m20.035 ms - -[0m
2021-07-03 21:40:26: [0mGET /api/weba/v3/site/publish/sklife-service [36m304 [0m21.514 ms - -[0m
2021-07-03 21:40:39: [0mGET /api/weba/v3/site/publish/sklife-service [36m304 [0m16.494 ms - -[0m
2021-07-03 21:40:39: [0mGET /api/weba/v3/site/publish/sklife-service [36m304 [0m14.705 ms - -[0m
2021-07-03 22:52:35: [0mGET /lifelab-plus/%E6%8A%BD%E7%8D%8E%E8%B3%87%E6%96%99%E5%A1%AB%E5%AF%AB?slideIndex=0 [32m200 [0m10.936 ms - -[0m
2021-07-03 22:53:10: [0mGET /api/weba/v3/site/publish/lifelab-plus [32m200 [0m11.899 ms - -[0m
2021-07-03 22:53:10: [0mGET /api/weba/v3/form/47204690-7E53-4F3A-8134-8AB58177AC79/site/4206FF28-2FCD-47A8-A555-C4A5702BAA7C [32m200 [0m13.183 ms - -[0m
2021-07-03 22:53:32: [0mGET /api/weba/v3/site/publish/lifelab-plus [36m304 [0m6.534 ms - -[0m
2021-07-03 22:53:32: [0mGET /api/weba/v3/form/47204690-7E53-4F3A-8134-8AB58177AC79/site/4206FF28-2FCD-47A8-A555-C4A5702BAA7C [36m304 [0m10.504 ms - -[0m
2021-07-03 23:13:25: [0mGET /lifelab-plus/%E6%B4%BB%E5%8B%95%E5%B0%81%E9%9D%A2?slideIndex=0 [32m200 [0m7.584 ms - -[0m
2021-07-03 23:19:51: [0mGET /api/weba/v3/site/publish/lifelab-plus [32m200 [0m11.186 ms - -[0m
2021-07-03 23:20:02: [0mGET /api/weba/v3/form/47204690-7E53-4F3A-8134-8AB58177AC79/site/4206FF28-2FCD-47A8-A555-C4A5702BAA7C [32m200 [0m12.090 ms - -[0m
