2021-07-17 00:25:45: [0mGET /eden-life [32m200 [0m11.145 ms - 719[0m
2021-07-17 00:25:45: [0mGET /eden-life [32m200 [0m14.914 ms - 719[0m
2021-07-17 00:25:45: [0mGET /eden-life [32m200 [0m7.134 ms - 719[0m
2021-07-17 00:25:45: [0mGET /eden-life [32m200 [0m14.163 ms - 719[0m
2021-07-17 00:25:45: [0mGET /eden-life [32m200 [0m5.840 ms - 719[0m
2021-07-17 00:25:45: [0mGET /eden-life [32m200 [0m9.249 ms - 719[0m
2021-07-17 00:25:45: [0mGET /eden-life [32m200 [0m7.706 ms - 719[0m
2021-07-17 00:25:45: [0mGET /eden-life [32m200 [0m9.575 ms - 719[0m
2021-07-17 00:25:46: [0mGET /eden-life [32m200 [0m17.055 ms - 719[0m
2021-07-17 00:25:46: [0mGET /eden-life [32m200 [0m19.822 ms - 719[0m
2021-07-17 00:25:46: [0mGET /eden-life [32m200 [0m24.557 ms - 719[0m
2021-07-17 00:25:46: [0mGET /eden-life [32m200 [0m9.934 ms - 719[0m
2021-07-17 00:25:46: [0mGET /eden-life [32m200 [0m14.862 ms - 719[0m
2021-07-17 03:16:27: [0mGET /api/weba/v3/site/publish/sklife-service [36m304 [0m21.946 ms - -[0m
2021-07-17 03:27:52: Error: 站點未發佈或無內容
2021-07-17 03:27:52:     at get_site_structure_prod (D:\WEBA\www\routes\froentend.js:40:27)
2021-07-17 03:27:52:     at runMicrotasks (<anonymous>)
2021-07-17 03:27:52:     at processTicksAndRejections (internal/process/task_queues.js:93:5)
2021-07-17 03:27:52:     at async D:\WEBA\www\routes\froentend.js:67:28
2021-07-17 03:27:52: [0mGET /robots.txt [32m200 [0m5.908 ms - -[0m
2021-07-17 03:27:53: [0mGET /sklife-service [32m200 [0m46.945 ms - -[0m
2021-07-17 06:20:18: [0mGET /lifelab-plus/%E6%B4%BB%E5%8B%95%E5%B0%81%E9%9D%A2?slideIndex=0 [32m200 [0m11.694 ms - -[0m
2021-07-17 06:20:18: [0mGET /lifelab-plus/%E6%B4%BB%E5%8B%95%E5%B0%81%E9%9D%A2?slideIndex=0 [32m200 [0m42.300 ms - -[0m
2021-07-17 07:19:10: [0mGET /api/weba/v3/site/publish/eden-life [32m200 [0m13.439 ms - -[0m
2021-07-17 08:24:24: Error: 站點未發佈或無內容
2021-07-17 08:24:24:     at get_site_structure_prod (D:\WEBA\www\routes\froentend.js:40:27)
2021-07-17 08:24:24:     at runMicrotasks (<anonymous>)
2021-07-17 08:24:24:     at processTicksAndRejections (internal/process/task_queues.js:93:5)
2021-07-17 08:24:24:     at async D:\WEBA\www\routes\froentend.js:67:28
2021-07-17 08:24:24: [0mGET / [32m200 [0m5.112 ms - -[0m
2021-07-17 09:17:34: [0mPOST /api/jsonws/invoke [33m403 [0m3.249 ms - -[0m
2021-07-17 09:31:23: [0mGET /sklife-service [32m200 [0m51.887 ms - -[0m
2021-07-17 09:31:33: [0mGET /api/weba/v3/site/publish/sklife-service [32m200 [0m29.452 ms - -[0m
2021-07-17 09:32:07: [0mGET /api/weba/v3/site/publish/sklife-service [32m200 [0m16.805 ms - -[0m
2021-07-17 09:32:17: [0mGET /api/weba/v3/site/publish/sklife-service [36m304 [0m13.045 ms - -[0m
2021-07-17 09:32:18: [0mGET /api/weba/v3/site/publish/sklife-service [36m304 [0m14.790 ms - -[0m
2021-07-17 09:32:21: [0mGET /api/weba/v3/site/publish/sklife-service [32m200 [0m15.519 ms - -[0m
2021-07-17 09:39:21: [0mGET /api/weba/v3/site/publish/sklife-service [32m200 [0m22.088 ms - -[0m
2021-07-17 09:39:22: [0mGET /api/weba/v3/site/publish/sklife-service [36m304 [0m14.055 ms - -[0m
2021-07-17 10:04:31: [0mGET /eden-life [32m200 [0m11.707 ms - 719[0m
2021-07-17 10:04:40: [0mGET /api/weba/v3/site/publish/sklife-service [32m200 [0m27.692 ms - -[0m
2021-07-17 10:12:01: [0mGET /api/weba/v3/site/publish/sklife-service [36m304 [0m21.660 ms - -[0m
2021-07-17 11:09:05: [0mGET /api/weba/v3/site/publish/sklife-service [36m304 [0m52.575 ms - -[0m
2021-07-17 11:17:51: [0mGET /api/weba/v3/site/publish/eden-life [32m200 [0m11.576 ms - -[0m
2021-07-17 11:17:55: [0mGET /api/weba/v3/form/D1A13B36-675D-4184-82F7-0010E8FB8CD4/site/D2BD7FFA-E28D-4CA5-B6B7-82E72DAD8D26 [32m200 [0m42.147 ms - -[0m
2021-07-17 11:23:10: [0mGET /api/weba/v3/site/publish/eden-life [32m200 [0m44.302 ms - -[0m
2021-07-17 11:23:22: [0mGET /api/weba/v3/site/publish/eden-life [36m304 [0m5.644 ms - -[0m
2021-07-17 11:23:22: [0mGET /api/weba/v3/site/publish/eden-life [36m304 [0m5.128 ms - -[0m
2021-07-17 12:08:22: [0mGET /api/weba/v3/site/publish/eden-life [32m200 [0m12.729 ms - -[0m
2021-07-17 12:09:46: [0mGET /api/weba/v3/site/publish/eden-life [36m304 [0m7.059 ms - -[0m
2021-07-17 12:09:46: [0mGET /api/weba/v3/site/publish/eden-life [36m304 [0m6.151 ms - -[0m
2021-07-17 12:56:42: [0mGET /api/weba/v3/site/publish/sklife-service [32m200 [0m46.227 ms - -[0m
2021-07-17 12:56:42: [0mGET /api/weba/v3/site/publish/sklife-service [36m304 [0m14.441 ms - -[0m
2021-07-17 13:46:51: [0mGET /api/weba/v3/site/publish/sklife-service [32m200 [0m22.460 ms - -[0m
2021-07-17 13:46:51: [0mGET /api/weba/v3/site/publish/sklife-service [36m304 [0m15.643 ms - -[0m
2021-07-17 14:30:07: [0mGET /api/weba/v3/site/publish/sklife-service [36m304 [0m20.276 ms - -[0m
2021-07-17 14:34:40: [0mGET /eden-life [32m200 [0m35.063 ms - 719[0m
2021-07-17 16:11:53: Error: 站點未發佈或無內容
2021-07-17 16:11:53:     at get_site_structure_prod (D:\WEBA\www\routes\froentend.js:40:27)
2021-07-17 16:11:53:     at runMicrotasks (<anonymous>)
2021-07-17 16:11:53:     at processTicksAndRejections (internal/process/task_queues.js:93:5)
2021-07-17 16:11:53:     at async D:\WEBA\www\routes\froentend.js:67:28
2021-07-17 16:11:53: [0mGET /robots.txt [32m200 [0m6.866 ms - -[0m
2021-07-17 16:15:49: [0mGET /sklife-service [32m200 [0m44.524 ms - -[0m
2021-07-17 16:47:44: [0mGET /api/weba/v3/site/publish/sklife-service [32m200 [0m57.723 ms - -[0m
2021-07-17 16:47:44: [0mGET /api/weba/v3/site/publish/sklife-service [36m304 [0m14.747 ms - -[0m
2021-07-17 16:49:06: [0mGET /sklife-service/%E9%A0%81%E9%9D%A2?slideIndex=0 [32m200 [0m48.433 ms - -[0m
2021-07-17 17:34:08: [0mGET /api/weba/v3/site/publish/sklife-service [36m304 [0m20.619 ms - -[0m
2021-07-17 19:14:28: [0mGET /api/weba/v3/site/publish/sklife-service [32m200 [0m28.189 ms - -[0m
2021-07-17 19:14:29: [0mGET /api/weba/v3/site/publish/sklife-service [36m304 [0m15.145 ms - -[0m
2021-07-17 20:40:32: [0mGET /api/weba/v3/site/publish/sklife-service [32m200 [0m24.895 ms - -[0m
2021-07-17 20:40:32: [0mGET /api/weba/v3/site/publish/sklife-service [36m304 [0m14.618 ms - -[0m
2021-07-17 20:43:44: Error: 站點未發佈或無內容
2021-07-17 20:43:44:     at get_site_structure_prod (D:\WEBA\www\routes\froentend.js:40:27)
2021-07-17 20:43:44:     at runMicrotasks (<anonymous>)
2021-07-17 20:43:44:     at processTicksAndRejections (internal/process/task_queues.js:93:5)
2021-07-17 20:43:44:     at async D:\WEBA\www\routes\froentend.js:67:28
2021-07-17 20:43:44: [0mGET / [32m200 [0m7.309 ms - -[0m
2021-07-17 21:14:30: [0mGET /api/weba/v3/site/publish/sklife-service [36m304 [0m47.690 ms - -[0m
2021-07-17 21:20:40: [0mGET /api/weba/v3/site/publish/eden-life [32m200 [0m12.731 ms - -[0m
2021-07-17 21:20:40: [0mGET /api/weba/v3/site/publish/eden-life [36m304 [0m5.451 ms - -[0m
2021-07-17 22:23:10: [0mGET /api/weba/v3/site/publish/eden-life [32m200 [0m15.856 ms - -[0m
2021-07-17 22:40:02: [0mPOST /api/jsonws/invoke [33m403 [0m7.227 ms - -[0m
2021-07-17 22:41:09: [0mGET /api/weba/v3/site/publish/sklife-service [36m304 [0m19.824 ms - -[0m
2021-07-17 23:19:56: [0mGET /api/weba/v3/site/publish/sklife-service [36m304 [0m21.228 ms - -[0m
